<svg width="26" height="20" viewBox="0 0 26 20" fill="none" xmlns="http://www.w3.org/2000/svg">
<path fill-rule="evenodd" clip-rule="evenodd" d="M10.5852 5.27303C10.4074 5.17367 10.195 5.18231 10.0245 5.29584C9.85399 5.40937 9.75 5.61142 9.75 5.82917V14.1708C9.75 14.3886 9.85399 14.5906 10.0245 14.7042C10.195 14.8177 10.4074 14.8263 10.5852 14.727L14.3132 12.6436L18.0415 10.5559C18.2327 10.4488 18.3529 10.2343 18.3529 10C18.3529 9.76575 18.2327 9.55116 18.0415 9.4441L14.3136 7.3566L10.5852 5.27303ZM10.8971 6.85207L13.7898 8.46864L16.5245 10L13.7898 11.5314L10.8971 13.1479V6.85207Z" fill="#1E272E"/>
<path fill-rule="evenodd" clip-rule="evenodd" d="M4.77941 0C2.13982 0 0 2.33185 0 5.20833V14.7917C0 17.6681 2.13982 20 4.77941 20H21.2206C23.8602 20 26 17.6681 26 14.7917V5.20833C26 2.33185 23.8602 0 21.2206 0H4.77941ZM1.14706 5.20833C1.14706 3.02221 2.77332 1.25 4.77941 1.25H21.2206C23.2267 1.25 24.8529 3.02221 24.8529 5.20833V14.7917C24.8529 16.9778 23.2267 18.75 21.2206 18.75H4.77941C2.77332 18.75 1.14706 16.9778 1.14706 14.7917V5.20833Z" fill="#1E272E"/>
</svg>
