<svg width="38" height="29" viewBox="0 0 38 29" fill="none" xmlns="http://www.w3.org/2000/svg">
<path fill-rule="evenodd" clip-rule="evenodd" d="M33.25 7.91667C35.8693 7.91667 38 10.0474 38 12.6667C38 14.7197 36.6511 16.5196 34.7508 17.1553C34.8052 17.5015 34.8333 17.8529 34.8333 18.2083C34.8333 23.883 27.73 28.5 19 28.5C10.27 28.5 3.16667 23.883 3.16667 18.2083C3.16667 17.8529 3.19479 17.5015 3.2492 17.1553C1.34889 16.5196 0 14.7197 0 12.6667C0 10.0474 2.1307 7.91667 4.75 7.91667C6.46979 7.91667 8.01669 8.85648 8.85001 10.3198C11.4104 8.92558 14.6582 8.05776 18.2083 7.94276V0.791667C18.2083 0.555867 18.3135 0.333211 18.4944 0.182454C18.6768 0.0324708 18.9181 -0.0286052 19.1453 0.013916L28.8088 1.8258C29.3156 0.750595 30.4018 0 31.6667 0C33.4124 0 34.8333 1.42021 34.8333 3.16667C34.8333 4.91313 33.4124 6.33333 31.6667 6.33333C29.9947 6.33333 28.6348 5.02658 28.5217 3.38208L19.7917 1.74569V7.94276C23.3418 8.05776 26.5896 8.92558 29.15 10.3198C29.9833 8.85648 31.5302 7.91667 33.25 7.91667ZM30.52 11.1712C32.3117 12.4099 33.6312 13.9339 34.3081 15.6286C35.5425 15.1877 36.4153 14.0106 36.4153 12.6667C36.4153 10.9202 34.9943 9.5 33.2487 9.5C32.0863 9.5 31.0674 10.1661 30.52 11.1712ZM1.58066 12.6667C1.58066 10.9202 3.00164 9.5 4.74733 9.5C5.9097 9.5 6.92856 10.1661 7.47602 11.1712C5.68424 12.4098 4.36473 13.934 3.68787 15.6286C2.4535 15.1876 1.58066 14.0106 1.58066 12.6667ZM33.25 18.2083C33.25 23.0178 26.8701 26.9167 19 26.9167C11.1299 26.9167 4.75 23.0178 4.75 18.2083C4.75 13.3989 11.1299 9.5 19 9.5C26.8701 9.5 33.25 13.3989 33.25 18.2083Z" fill="#1E272E"/>
<path d="M25.8126 22.2285C20.9512 24.2757 17.0393 24.2757 12.178 22.2285C11.7713 22.0592 11.3121 22.2486 11.1405 22.6514C10.9704 23.0542 11.1606 23.5181 11.5626 23.6882C14.1927 24.7953 16.6234 25.3333 18.9953 25.3333C21.3672 25.3333 23.7978 24.7953 26.428 23.6882C26.83 23.5181 27.0202 23.0542 26.8501 22.6514C26.68 22.2486 26.2177 22.0608 25.8126 22.2285Z" fill="#1E272E"/>
<path d="M13.4551 19C14.7668 19 15.8301 17.9367 15.8301 16.625C15.8301 15.3133 14.7668 14.25 13.4551 14.25C12.1434 14.25 11.0801 15.3133 11.0801 16.625C11.0801 17.9367 12.1434 19 13.4551 19Z" fill="#1E272E"/>
<path d="M24.5449 19C25.8566 19 26.9199 17.9367 26.9199 16.625C26.9199 15.3133 25.8566 14.25 24.5449 14.25C23.2332 14.25 22.1699 15.3133 22.1699 16.625C22.1699 17.9367 23.2332 19 24.5449 19Z" fill="#1E272E"/>
</svg>
